[
    {
        "id": "81c4dbfc5aa3fb05",
        "type": "tab",
        "label": "Authentication flow",
        "disabled": false,
        "info": ""
    },
    {
        "id": "58bc4390814b24a6",
        "type": "tab",
        "label": "Kafka event streams",
        "disabled": false,
        "info": ""
    },
    {
        "id": "9cb8178f24e9d90d",
        "type": "tab",
        "label": "SocketIO streams",
        "disabled": false,
        "info": ""
    },
    {
        "id": "c72e9d69.12f3d",
        "type": "tab",
        "label": "Example Service",
        "disabled": false,
        "info": ""
    },
    {
        "id": "9ec473ef.e0678",
        "type": "tls-config",
        "name": "myTLSconfig",
        "cert": "",
        "key": "",
        "ca": "",
        "certname": "",
        "keyname": "",
        "caname": "",
        "servername": "mqttBroker",
        "verifyservercert": true
    },
    {
        "id": "5d52b083.cd194",
        "type": "Kafka Broker",
        "name": "Docker Kafka",
        "hosts": [
            {
                "host": "kafka",
                "port": 9092
            }
        ],
        "hostsEnvVar": "",
        "connectTimeout": "10000",
        "requestTimeout": "30000",
        "autoConnect": "true",
        "idleConnection": "5",
        "reconnectOnIdle": "true",
        "maxAsyncRequests": "10",
        "checkInterval": "10",
        "selfSign": true,
        "usetls": false,
        "useCredentials": false
    },
    {
        "id": "7bb16343.655f6c",
        "type": "swagger-doc"
    },
    {
        "id": "837f6e03.c995e",
        "type": "swagger-doc"
    },
    {
        "id": "951febbe.0a91a8",
        "type": "swagger-doc"
    },
    {
        "id": "b36f5975.c14748",
        "type": "swagger-doc"
    },
    {
        "id": "632217a5.ae10d8",
        "type": "swagger-doc"
    },
    {
        "id": "b6cbdbe3.337198",
        "type": "swagger-doc"
    },
    {
        "id": "75bbf449.215a0c",
        "type": "swagger-doc"
    },
    {
        "id": "d78978c5.21a518",
        "type": "swagger-doc"
    },
    {
        "id": "d67b65b4.594208",
        "type": "swagger-doc"
    },
    {
        "id": "2d827af0.2c50b6",
        "type": "swagger-doc"
    },
    {
        "id": "3a68a2e002dd72c9",
        "type": "swagger-doc"
    },
    {
        "id": "d1c175517ad28bb2",
        "type": "swagger-doc"
    },
    {
        "id": "2b7d0ae107756ae0",
        "type": "swagger-doc"
    },
    {
        "id": "867453c0d8f86838",
        "type": "swagger-doc"
    },
    {
        "id": "c22274ca7ef29880",
        "type": "swagger-doc"
    },
    {
        "id": "e5c8f2d9b4364ca1",
        "type": "swagger-doc"
    },
    {
        "id": "3d18a4617854af56",
        "type": "swagger-doc"
    },
    {
        "id": "c90aada6226780e1",
        "type": "swagger-doc"
    },
    {
        "id": "3164e444ae8319a8",
        "type": "swagger-doc"
    },
    {
        "id": "d1225cec8ac63b27",
        "type": "swagger-doc"
    },
    {
        "id": "17da08e510b4875f",
        "type": "swagger-doc"
    },
    {
        "id": "c946f56a5e761280",
        "type": "swagger-doc"
    },
    {
        "id": "65cd4c80ffd67386",
        "type": "swagger-doc"
    },
    {
        "id": "ccb905c0db17cf37",
        "type": "swagger-doc"
    },
    {
        "id": "9510d948a394ca64",
        "type": "swagger-doc"
    },
    {
        "id": "5fd8d4bca32ec67d",
        "type": "swagger-doc"
    },
    {
        "id": "15dd8bbeba878648",
        "type": "swagger-doc"
    },
    {
        "id": "2ca49e7a7f3ac743",
        "type": "swagger-doc"
    },
    {
        "id": "a5ef3cae04a64f4a",
        "type": "swagger-doc"
    },
    {
        "id": "b42b11754607a245",
        "type": "swagger-doc"
    },
    {
        "id": "6fee7b5ebe434788",
        "type": "swagger-doc"
    },
    {
        "id": "455ebfc725ae6efa",
        "type": "swagger-doc"
    },
    {
        "id": "148d17689545aa55",
        "type": "swagger-doc"
    },
    {
        "id": "87f26c151c046981",
        "type": "swagger-doc"
    },
    {
        "id": "8ed1421f86b9c227",
        "type": "swagger-doc"
    },
    {
        "id": "48897ae6447f989b",
        "type": "swagger-doc"
    },
    {
        "id": "50b559d4f67854ff",
        "type": "swagger-doc"
    },
    {
        "id": "aaf113e542bf619d",
        "type": "swagger-doc"
    },
    {
        "id": "cb07999bca0434c1",
        "type": "swagger-doc"
    },
    {
        "id": "22d774991d4aaf5d",
        "type": "swagger-doc"
    },
    {
        "id": "53e2668642b8155b",
        "type": "swagger-doc",
        "path": "/socket.io <in:authenticate>"
    },
    {
        "id": "85a3852c8228015f",
        "type": "swagger-doc",
        "path": "/socket.io <in:logout>"
    },
    {
        "id": "cadebe4fdb7ed348",
        "type": "swagger-doc",
        "path": "/socket.io <in:testAll>"
    },
    {
        "id": "9372bcb2f2f63693",
        "type": "swagger-doc",
        "path": "/socket.io <in:testEmit>"
    },
    {
        "id": "4e4fe7a4bc450899",
        "type": "swagger-doc",
        "path": "/socket.io <in:testBroadcast>"
    },
    {
        "id": "682d8f1995fe4c54",
        "type": "swagger-doc",
        "path": "/socket.io <in:joinRoom>"
    },
    {
        "id": "2b4eb8ae58178ec9",
        "type": "swagger-doc",
        "path": "/socket.io <in:leaveRoom>"
    },
    {
        "id": "5bea77d88d9acf10",
        "type": "swagger-doc",
        "path": "/socket.io <in:sendRoom>"
    },
    {
        "id": "eaf6498e4f5aa48c",
        "type": "swagger-doc",
        "path": "/socket.io <in:joinServiceEvent>"
    },
    {
        "id": "4a7293f6a005d5c8",
        "type": "swagger-doc",
        "path": "/socket.io <in:leaveServiceEvent>"
    },
    {
        "id": "7beaaa1fdff5c409",
        "type": "swagger-doc",
        "path": "/main/auth-login (get)"
    },
    {
        "id": "dcf97af846a739ca",
        "type": "swagger-doc",
        "path": "/main/auth-login (post)"
    },
    {
        "id": "9759f1b9f6d7561f",
        "type": "swagger-doc",
        "path": "/main/code-login (post)"
    },
    {
        "id": "dafdf149e3b32579",
        "type": "swagger-doc",
        "path": "/main/auth-token (get)"
    },
    {
        "id": "cf2432b640d7875f",
        "type": "swagger-doc",
        "path": "/main/auth-token (post)"
    },
    {
        "id": "bfc4fbcb48f02581",
        "type": "swagger-doc",
        "path": "/main/auth-info (get)"
    },
    {
        "id": "da3941ef77ba7d80",
        "type": "swagger-doc",
        "path": "/main/auth-usergroup (get)"
    },
    {
        "id": "3e56590324679a35",
        "type": "swagger-doc",
        "path": "/main/auth-logout (get)"
    },
    {
        "id": "b395411cfc633def",
        "type": "swagger-doc",
        "path": "/main/auth-logout (post)"
    },
    {
        "id": "7bc91e43e8287b87",
        "type": "swagger-doc",
        "path": "/socket.io <out:login>"
    },
    {
        "id": "54cca19b709252e4",
        "type": "swagger-doc",
        "path": "/socket.io <out:logout>"
    },
    {
        "id": "e4c80b586f822e57",
        "type": "swagger-doc",
        "path": "/socket.io <out:new-msg>"
    },
    {
        "id": "875d135cc27d3146",
        "type": "swagger-doc",
        "path": "/socket.io <out:new_room_msg>"
    },
    {
        "id": "8fef84f917680ab0",
        "type": "swagger-doc",
        "path": "/socket.io <out:new_room_msg>"
    },
    {
        "id": "4fbd7a269d69f209",
        "type": "swagger-doc",
        "path": "/socket.io <out:new_room_msg>"
    },
    {
        "id": "e50929f420c7afe5",
        "type": "swagger-doc",
        "path": "/socket.io <out:new_room_msg>"
    },
    {
        "id": "c35e1d51ea1575b0",
        "type": "swagger-doc",
        "path": "/socket.io <out:new_room_msg>"
    },
    {
        "id": "c726ba4ac99d0b9d",
        "type": "swagger-doc",
        "path": "/socket.io <out:new-msg>"
    },
    {
        "id": "ac1e5f565c114990",
        "type": "swagger-doc",
        "path": "/socket.io <out:socket-msg>"
    },
    {
        "id": "610feef9.ded6a",
        "type": "swagger-doc",
        "path": "/example/user (put)"
    },
    {
        "id": "57e32bd9.4c4a54",
        "type": "swagger-doc",
        "path": "/example/user (get)"
    },
    {
        "id": "2ce58e34.e5bb52",
        "type": "swagger-doc",
        "path": "/example/user (delete)"
    },
    {
        "id": "68c27628.211a08",
        "type": "swagger-doc",
        "path": "/example/user (patch)"
    },
    {
        "id": "790bec7a.df60d4",
        "type": "swagger-doc",
        "path": "/example/role (get)"
    },
    {
        "id": "7f285ede.44709",
        "type": "swagger-doc",
        "path": "/example/role (put)"
    },
    {
        "id": "35e6a0b.f858d6",
        "type": "swagger-doc",
        "path": "/example/role (patch)"
    },
    {
        "id": "db012b4f.134218",
        "type": "swagger-doc",
        "path": "/example/role (delete)"
    },
    {
        "id": "6ac96565.c1c70c",
        "type": "swagger-doc",
        "path": "/example/users/byEmail (get)"
    },
    {
        "id": "ef6ea6bd.5df228",
        "type": "swagger-doc",
        "path": "/example/roles/byName (get)"
    },
    {
        "id": "83488294.fdf5f",
        "type": "swagger-doc",
        "path": "/example/rolesAuth (get)"
    },
    {
        "id": "b16b851e.efd968",
        "type": "swagger-doc",
        "path": "/example/roles (get)"
    },
    {
        "id": "5499cc45.d80114",
        "type": "swagger-doc",
        "path": "/example/users (get)"
    },
    {
        "id": "995d60929f09a95e",
        "type": "http in",
        "z": "81c4dbfc5aa3fb05",
        "name": "",
        "url": "/main/auth-login",
        "method": "get",
        "upload": false,
        "swaggerDoc": "7beaaa1fdff5c409",
        "x": 160,
        "y": 80,
        "wires": [
            [
                "74fc559409d18a55"
            ]
        ]
    },
    {
        "id": "46b5946b23dddcb5",
        "type": "http in",
        "z": "81c4dbfc5aa3fb05",
        "name": "",
        "url": "/main/auth-token",
        "method": "post",
        "upload": false,
        "swaggerDoc": "cf2432b640d7875f",
        "x": 160,
        "y": 280,
        "wires": [
            [
                "74fc559409d18a55"
            ]
        ]
    },
    {
        "id": "184765206b2a691b",
        "type": "http in",
        "z": "81c4dbfc5aa3fb05",
        "name": "",
        "url": "/main/auth-token",
        "method": "get",
        "upload": false,
        "swaggerDoc": "dafdf149e3b32579",
        "x": 160,
        "y": 240,
        "wires": [
            [
                "74fc559409d18a55"
            ]
        ]
    },
    {
        "id": "145e4f75d167affd",
        "type": "http in",
        "z": "81c4dbfc5aa3fb05",
        "name": "",
        "url": "/main/auth-info",
        "method": "get",
        "upload": false,
        "swaggerDoc": "bfc4fbcb48f02581",
        "x": 150,
        "y": 380,
        "wires": [
            [
                "e12dbec733f00309"
            ]
        ]
    },
    {
        "id": "6c0ddc954f539352",
        "type": "template",
        "z": "81c4dbfc5aa3fb05",
        "name": "Tmpl logged",
        "field": "payload",
        "fieldType": "msg",
        "format": "handlebars",
        "syntax": "mustache",
        "template": "{{{ oauth2Response }}}",
        "output": "str",
        "x": 790,
        "y": 360,
        "wires": [
            [
                "d716e254f600fc4f"
            ]
        ]
    },
    {
        "id": "d716e254f600fc4f",
        "type": "http response",
        "z": "81c4dbfc5aa3fb05",
        "name": "Return 200",
        "statusCode": "200",
        "headers": {
            "Access-Control-Allow-Origin": "http://localhost"
        },
        "x": 990,
        "y": 360,
        "wires": []
    },
    {
        "id": "c54ade57b149652c",
        "type": "comment",
        "z": "81c4dbfc5aa3fb05",
        "name": "Login with Username and Password or header Basic Auth",
        "info": "",
        "x": 270,
        "y": 40,
        "wires": []
    },
    {
        "id": "b494cc3626368280",
        "type": "comment",
        "z": "81c4dbfc5aa3fb05",
        "name": "Get basic user informations",
        "info": "",
        "x": 170,
        "y": 340,
        "wires": []
    },
    {
        "id": "f428ab6656501258",
        "type": "comment",
        "z": "81c4dbfc5aa3fb05",
        "name": "Check user group by defined group name",
        "info": "",
        "x": 220,
        "y": 460,
        "wires": []
    },
    {
        "id": "7c57959d4de646ec",
        "type": "template",
        "z": "81c4dbfc5aa3fb05",
        "name": "Tmpl logged",
        "field": "payload",
        "fieldType": "msg",
        "format": "handlebars",
        "syntax": "mustache",
        "template": "{\"status\":\"has usergroup :)\"}",
        "output": "str",
        "x": 890,
        "y": 480,
        "wires": [
            [
                "56b8ae47f96a242f"
            ]
        ]
    },
    {
        "id": "56b8ae47f96a242f",
        "type": "http response",
        "z": "81c4dbfc5aa3fb05",
        "name": "Return 200",
        "statusCode": "200",
        "headers": {
            "Access-Control-Allow-Origin": "http://localhost"
        },
        "x": 1090,
        "y": 480,
        "wires": []
    },
    {
        "id": "0b553aae733b2d25",
        "type": "http in",
        "z": "81c4dbfc5aa3fb05",
        "name": "",
        "url": "/main/auth-usergroup",
        "method": "get",
        "upload": false,
        "swaggerDoc": "da3941ef77ba7d80",
        "x": 170,
        "y": 500,
        "wires": [
            [
                "34026ccc6172f5e9"
            ]
        ]
    },
    {
        "id": "66cbaf28c572cf27",
        "type": "http in",
        "z": "81c4dbfc5aa3fb05",
        "name": "",
        "url": "/main/auth-login",
        "method": "post",
        "upload": false,
        "swaggerDoc": "dcf97af846a739ca",
        "x": 160,
        "y": 120,
        "wires": [
            [
                "74fc559409d18a55"
            ]
        ]
    },
    {
        "id": "4bc617fac1fab5d4",
        "type": "http in",
        "z": "81c4dbfc5aa3fb05",
        "name": "",
        "url": "/main/auth-logout",
        "method": "get",
        "upload": false,
        "swaggerDoc": "3e56590324679a35",
        "x": 160,
        "y": 640,
        "wires": [
            [
                "1ab9038761e4df6e"
            ]
        ]
    },
    {
        "id": "e29abadeda5539e2",
        "type": "template",
        "z": "81c4dbfc5aa3fb05",
        "name": "Tmpl logged out",
        "field": "payload",
        "fieldType": "msg",
        "format": "handlebars",
        "syntax": "mustache",
        "template": "",
        "output": "str",
        "x": 840,
        "y": 640,
        "wires": [
            [
                "f36bacdcacdd7a74"
            ]
        ]
    },
    {
        "id": "f36bacdcacdd7a74",
        "type": "http response",
        "z": "81c4dbfc5aa3fb05",
        "name": "Return 200",
        "statusCode": "200",
        "headers": {},
        "x": 1030,
        "y": 640,
        "wires": []
    },
    {
        "id": "04ed92dda17de218",
        "type": "comment",
        "z": "81c4dbfc5aa3fb05",
        "name": "Logout by token",
        "info": "",
        "x": 140,
        "y": 600,
        "wires": []
    },
    {
        "id": "9125b899eb04c073",
        "type": "http in",
        "z": "81c4dbfc5aa3fb05",
        "name": "",
        "url": "/main/auth-logout",
        "method": "post",
        "upload": false,
        "swaggerDoc": "b395411cfc633def",
        "x": 160,
        "y": 680,
        "wires": [
            [
                "1ab9038761e4df6e"
            ]
        ]
    },
    {
        "id": "ea8fcddd29e49d9e",
        "type": "template",
        "z": "81c4dbfc5aa3fb05",
        "name": "Tmpl logged",
        "field": "payload",
        "fieldType": "msg",
        "format": "handlebars",
        "syntax": "mustache",
        "template": "{{{ oauth2Response }}}",
        "output": "json",
        "x": 830,
        "y": 100,
        "wires": [
            [
                "7a937771bcf76332"
            ]
        ]
    },
    {
        "id": "afc7b716c3d5ba50",
        "type": "http in",
        "z": "81c4dbfc5aa3fb05",
        "name": "",
        "url": "/main/code-login",
        "method": "post",
        "upload": false,
        "swaggerDoc": "9759f1b9f6d7561f",
        "x": 160,
        "y": 160,
        "wires": [
            [
                "74fc559409d18a55"
            ]
        ]
    },
    {
        "id": "7a937771bcf76332",
        "type": "http response",
        "z": "81c4dbfc5aa3fb05",
        "name": "Return 200",
        "statusCode": "200",
        "headers": {
            "Access-Control-Allow-Origin": "http://localhost"
        },
        "x": 1030,
        "y": 100,
        "wires": []
    },
    {
        "id": "21371efebab222d2",
        "type": "template",
        "z": "81c4dbfc5aa3fb05",
        "name": "Tmpl Error",
        "field": "payload",
        "fieldType": "msg",
        "format": "handlebars",
        "syntax": "mustache",
        "template": "",
        "output": "str",
        "x": 890,
        "y": 520,
        "wires": [
            [
                "cd632b3e76a390f4"
            ]
        ]
    },
    {
        "id": "cd632b3e76a390f4",
        "type": "http response",
        "z": "81c4dbfc5aa3fb05",
        "name": "404 Not found",
        "statusCode": "404",
        "headers": {},
        "x": 1100,
        "y": 520,
        "wires": []
    },
    {
        "id": "c73d750e15ba3ba8",
        "type": "comment",
        "z": "81c4dbfc5aa3fb05",
        "name": "Verify authenication with token, make sure user is logged in, Login alos possible with Bearer token",
        "info": "",
        "x": 390,
        "y": 200,
        "wires": []
    },
    {
        "id": "d20b22e5aa96d757",
        "type": "http response",
        "z": "81c4dbfc5aa3fb05",
        "name": "401 Unauthorized",
        "statusCode": "401",
        "headers": {},
        "x": 850,
        "y": 140,
        "wires": []
    },
    {
        "id": "d9efd6136fd5f656",
        "type": "http response",
        "z": "81c4dbfc5aa3fb05",
        "name": "401 Unauthorized",
        "statusCode": "401",
        "headers": {},
        "x": 830,
        "y": 400,
        "wires": []
    },
    {
        "id": "bb0ae231415268e3",
        "type": "template",
        "z": "81c4dbfc5aa3fb05",
        "name": "Tmpl Error",
        "field": "payload",
        "fieldType": "msg",
        "format": "handlebars",
        "syntax": "mustache",
        "template": "",
        "output": "str",
        "x": 610,
        "y": 400,
        "wires": [
            [
                "d9efd6136fd5f656"
            ]
        ]
    },
    {
        "id": "084f79777ee38c4b",
        "type": "http response",
        "z": "81c4dbfc5aa3fb05",
        "name": "401 Unauthorized",
        "statusCode": "401",
        "headers": {},
        "x": 850,
        "y": 700,
        "wires": []
    },
    {
        "id": "ab202d05cf522f43",
        "type": "template",
        "z": "81c4dbfc5aa3fb05",
        "name": "Tmpl Error",
        "field": "payload",
        "fieldType": "msg",
        "format": "handlebars",
        "syntax": "mustache",
        "template": "",
        "output": "str",
        "x": 630,
        "y": 700,
        "wires": [
            [
                "084f79777ee38c4b"
            ]
        ]
    },
    {
        "id": "f4116fe9128df162",
        "type": "http response",
        "z": "81c4dbfc5aa3fb05",
        "name": "401 Unauthorized",
        "statusCode": "401",
        "headers": {},
        "x": 870,
        "y": 560,
        "wires": []
    },
    {
        "id": "fa6206f77c40389e",
        "type": "template",
        "z": "81c4dbfc5aa3fb05",
        "name": "Tmpl Error",
        "field": "payload",
        "fieldType": "msg",
        "format": "handlebars",
        "syntax": "mustache",
        "template": "",
        "output": "str",
        "x": 650,
        "y": 560,
        "wires": [
            [
                "f4116fe9128df162"
            ]
        ]
    },
    {
        "id": "58f5b23c44d977fe",
        "type": "template",
        "z": "81c4dbfc5aa3fb05",
        "name": "Tmpl Error",
        "field": "payload",
        "fieldType": "msg",
        "format": "handlebars",
        "syntax": "mustache",
        "template": "",
        "output": "str",
        "x": 630,
        "y": 140,
        "wires": [
            [
                "d20b22e5aa96d757"
            ]
        ]
    },
    {
        "id": "c0f7fac850e74e9b",
        "type": "function",
        "z": "81c4dbfc5aa3fb05",
        "name": "",
        "func": "msg.oauth2Response = msg.iam ? JSON.stringify({\n    auth_expires_in: msg.iam.tokenExpiresIn,\n    auth_token: msg.iam.token,\n}) : null;\nreturn msg;",
        "outputs": 1,
        "noerr": 0,
        "initialize": "",
        "finalize": "",
        "libs": [],
        "x": 620,
        "y": 100,
        "wires": [
            [
                "ea8fcddd29e49d9e"
            ]
        ]
    },
    {
        "id": "74fc559409d18a55",
        "type": "iam-login",
        "z": "81c4dbfc5aa3fb05",
        "name": "",
        "endpoint": "/auth/realms/ambtec/protocol/openid-connect/token",
        "outputs": 2,
        "x": 420,
        "y": 120,
        "wires": [
            [
                "c0f7fac850e74e9b"
            ],
            [
                "58f5b23c44d977fe"
            ]
        ]
    },
    {
        "id": "e12dbec733f00309",
        "type": "iam-login",
        "z": "81c4dbfc5aa3fb05",
        "name": "",
        "endpoint": "/auth/realms/ambtec/protocol/openid-connect/token",
        "outputs": 2,
        "x": 390,
        "y": 380,
        "wires": [
            [
                "ccf62f574767c208"
            ],
            [
                "bb0ae231415268e3"
            ]
        ]
    },
    {
        "id": "ccf62f574767c208",
        "type": "function",
        "z": "81c4dbfc5aa3fb05",
        "name": "",
        "func": "msg.oauth2Response = msg.iam ? JSON.stringify(msg.iam) : null;\nreturn msg;",
        "outputs": 1,
        "noerr": 0,
        "initialize": "",
        "finalize": "",
        "libs": [],
        "x": 600,
        "y": 360,
        "wires": [
            [
                "6c0ddc954f539352"
            ]
        ]
    },
    {
        "id": "34026ccc6172f5e9",
        "type": "iam-login",
        "z": "81c4dbfc5aa3fb05",
        "name": "",
        "endpoint": "/auth/realms/ambtec/protocol/openid-connect/token",
        "outputs": 2,
        "x": 430,
        "y": 500,
        "wires": [
            [
                "cf284340e07b1859"
            ],
            [
                "fa6206f77c40389e"
            ]
        ]
    },
    {
        "id": "cf284340e07b1859",
        "type": "iam-hasgroup",
        "z": "81c4dbfc5aa3fb05",
        "group": "/TestGroup",
        "outputs": 2,
        "x": 690,
        "y": 500,
        "wires": [
            [
                "7c57959d4de646ec"
            ],
            [
                "21371efebab222d2"
            ]
        ]
    },
    {
        "id": "4b16243273a87b27",
        "type": "iam-logout",
        "z": "81c4dbfc5aa3fb05",
        "name": "",
        "endpoint": "/auth/realms/ambtec/protocol/openid-connect/logout",
        "outputs": 2,
        "x": 630,
        "y": 640,
        "wires": [
            [
                "e29abadeda5539e2"
            ],
            [
                "ab202d05cf522f43"
            ]
        ]
    },
    {
        "id": "1ab9038761e4df6e",
        "type": "iam-login",
        "z": "81c4dbfc5aa3fb05",
        "name": "",
        "endpoint": "/auth/realms/ambtec/protocol/openid-connect/token",
        "outputs": 2,
        "x": 410,
        "y": 660,
        "wires": [
            [
                "4b16243273a87b27"
            ],
            [
                "ab202d05cf522f43"
            ]
        ]
    },
    {
        "id": "a8af73a94f7dd04d",
        "type": "inject",
        "z": "58bc4390814b24a6",
        "name": "",
        "props": [
            {
                "p": "payload"
            },
            {
                "p": "topic",
                "vt": "str"
            }
        ],
        "repeat": "",
        "crontab": "",
        "once": false,
        "onceDelay": 0.1,
        "topic": "",
        "payload": "",
        "payloadType": "date",
        "x": 160,
        "y": 200,
        "wires": [
            [
                "906d58dbf9c07d7d"
            ]
        ]
    },
    {
        "id": "906d58dbf9c07d7d",
        "type": "template",
        "z": "58bc4390814b24a6",
        "name": "",
        "field": "payload",
        "fieldType": "msg",
        "format": "json",
        "syntax": "mustache",
        "template": "asdfasdf",
        "output": "str",
        "x": 350,
        "y": 200,
        "wires": [
            [
                "fce119d4aba996ae"
            ]
        ]
    },
    {
        "id": "5c62ce6a4b7b320b",
        "type": "debug",
        "z": "58bc4390814b24a6",
        "name": "",
        "active": true,
        "tosidebar": true,
        "console": false,
        "tostatus": false,
        "complete": "true",
        "targetType": "full",
        "statusVal": "",
        "statusType": "auto",
        "x": 410,
        "y": 280,
        "wires": []
    },
    {
        "id": "c6cd03bb45f092a3",
        "type": "Kafka Admin",
        "z": "58bc4390814b24a6",
        "name": "Kafka Admin",
        "broker": "5d52b083.cd194",
        "x": 430,
        "y": 360,
        "wires": [
            [
                "b70254424b0a91d4"
            ],
            [
                "aafbb08d3d17c98b"
            ]
        ]
    },
    {
        "id": "a9dd855efca6bf63",
        "type": "inject",
        "z": "58bc4390814b24a6",
        "name": "",
        "props": [
            {
                "p": "payload",
                "v": "",
                "vt": "date"
            },
            {
                "p": "topic",
                "v": "listTopics",
                "vt": "string"
            }
        ],
        "repeat": "",
        "crontab": "",
        "once": false,
        "onceDelay": 0.1,
        "topic": "listTopics",
        "payload": "",
        "payloadType": "date",
        "x": 190,
        "y": 400,
        "wires": [
            [
                "c6cd03bb45f092a3"
            ]
        ]
    },
    {
        "id": "c0bc639d74beb7df",
        "type": "inject",
        "z": "58bc4390814b24a6",
        "name": "",
        "repeat": "",
        "crontab": "",
        "once": false,
        "onceDelay": 0.1,
        "topic": "listGroups",
        "payload": "",
        "payloadType": "date",
        "x": 200,
        "y": 360,
        "wires": [
            [
                "c6cd03bb45f092a3"
            ]
        ]
    },
    {
        "id": "15d979b0f5812c6e",
        "type": "inject",
        "z": "58bc4390814b24a6",
        "name": "describeGroups",
        "props": [
            {
                "p": "payload",
                "v": "[\"aGroup\"]",
                "vt": "json"
            },
            {
                "p": "topic",
                "v": "describeGroups",
                "vt": "string"
            }
        ],
        "repeat": "",
        "crontab": "",
        "once": false,
        "onceDelay": 0.1,
        "topic": "describeGroups",
        "payload": "[\"aGroup\"]",
        "payloadType": "json",
        "x": 180,
        "y": 440,
        "wires": [
            [
                "c6cd03bb45f092a3"
            ]
        ]
    },
    {
        "id": "715bdd22e5e38326",
        "type": "inject",
        "z": "58bc4390814b24a6",
        "name": "createTopics",
        "props": [
            {
                "p": "payload"
            },
            {
                "p": "topic",
                "vt": "str"
            }
        ],
        "repeat": "",
        "crontab": "",
        "once": false,
        "onceDelay": 0.1,
        "topic": "createTopics",
        "payload": "[{\"topic\":\"aTestRemoveTopic\",\"partitions\":1,\"replicationFactor\":1},{\"topic\":\"aTestRemoveTopicfail\"},{\"topic\":\"test\",\"partitions\":1,\"replicationFactor\":1},{\"topic\":\"atest\",\"partitions\":1,\"replicationFactor\":1},{\"topic\":\"testCommit\",\"partitions\":1,\"replicationFactor\":1},{\"topic\":\"testRollback\",\"partitions\":1,\"replicationFactor\":1}]",
        "payloadType": "json",
        "x": 170,
        "y": 480,
        "wires": [
            [
                "c6cd03bb45f092a3"
            ]
        ]
    },
    {
        "id": "9070701f8d5fedea",
        "type": "inject",
        "z": "58bc4390814b24a6",
        "name": "deleteTopics",
        "props": [
            {
                "p": "payload"
            },
            {
                "p": "topic",
                "vt": "str"
            }
        ],
        "repeat": "",
        "crontab": "",
        "once": false,
        "onceDelay": 0.1,
        "topic": "deleteTopics",
        "payload": "[{\"topic\":\"aTestRemoveTopic\"},{\"topic\":\"aTestRemoveTopic2\"}]",
        "payloadType": "json",
        "x": 170,
        "y": 520,
        "wires": [
            [
                "c6cd03bb45f092a3"
            ]
        ]
    },
    {
        "id": "b70254424b0a91d4",
        "type": "debug",
        "z": "58bc4390814b24a6",
        "name": "",
        "active": true,
        "tosidebar": true,
        "console": false,
        "tostatus": false,
        "complete": "true",
        "targetType": "full",
        "statusVal": "",
        "statusType": "auto",
        "x": 610,
        "y": 340,
        "wires": []
    },
    {
        "id": "aafbb08d3d17c98b",
        "type": "debug",
        "z": "58bc4390814b24a6",
        "name": "",
        "active": true,
        "tosidebar": true,
        "console": false,
        "tostatus": false,
        "complete": "true",
        "targetType": "full",
        "statusVal": "",
        "statusType": "auto",
        "x": 610,
        "y": 380,
        "wires": []
    },
    {
        "id": "d6634fa54796ae6b",
        "type": "inject",
        "z": "58bc4390814b24a6",
        "name": "createTopics",
        "props": [
            {
                "p": "payload"
            },
            {
                "p": "topic",
                "vt": "str"
            }
        ],
        "repeat": "",
        "crontab": "",
        "once": true,
        "onceDelay": "10.0",
        "topic": "createTopics",
        "payload": "[{\"topic\":\"test-topic1\",\"partitions\":1,\"replicationFactor\":1},{\"topic\":\"socket-msg\",\"partitions\":1,\"replicationFactor\":1},{\"topic\":\"socket-room-msg\",\"partitions\":1,\"replicationFactor\":1},{\"topic\":\"dashboard-events\",\"partitions\":1,\"replicationFactor\":1}]",
        "payloadType": "json",
        "x": 170,
        "y": 120,
        "wires": [
            [
                "74d9ee2004481b9e"
            ]
        ]
    },
    {
        "id": "74d9ee2004481b9e",
        "type": "Kafka Admin",
        "z": "58bc4390814b24a6",
        "name": "Kafka Admin",
        "broker": "5d52b083.cd194",
        "x": 370,
        "y": 120,
        "wires": [
            [
                "19d8736f2f7eea66"
            ],
            [
                "697d6010b963f3da"
            ]
        ]
    },
    {
        "id": "19d8736f2f7eea66",
        "type": "debug",
        "z": "58bc4390814b24a6",
        "name": "",
        "active": true,
        "tosidebar": true,
        "console": false,
        "tostatus": false,
        "complete": "true",
        "targetType": "full",
        "statusVal": "",
        "statusType": "auto",
        "x": 530,
        "y": 100,
        "wires": []
    },
    {
        "id": "697d6010b963f3da",
        "type": "debug",
        "z": "58bc4390814b24a6",
        "name": "",
        "active": true,
        "tosidebar": true,
        "console": false,
        "tostatus": false,
        "complete": "true",
        "targetType": "full",
        "statusVal": "",
        "statusType": "auto",
        "x": 530,
        "y": 140,
        "wires": []
    },
    {
        "id": "fce119d4aba996ae",
        "type": "Kafka Producer",
        "z": "58bc4390814b24a6",
        "name": "",
        "broker": "5d52b083.cd194",
        "topic": "test-topic1",
        "topicSlash2dot": false,
        "requireAcks": 1,
        "ackTimeoutMs": 100,
        "partitionerType": 0,
        "key": "",
        "partition": 0,
        "attributes": 0,
        "connectionType": "Producer",
        "convertFromJson": false,
        "x": 550,
        "y": 200,
        "wires": []
    },
    {
        "id": "d98f05a65638d5f0",
        "type": "Kafka Consumer Group",
        "z": "58bc4390814b24a6",
        "name": "",
        "broker": "5d52b083.cd194",
        "groupId": "aGroup",
        "sessionTimeout": 15000,
        "protocol": [
            "roundrobin"
        ],
        "encoding": "utf8",
        "fromOffset": "latest",
        "commitOffsetsOnFirstJoin": "true",
        "outOfRangeOffset": "earliest",
        "topics": [
            "test-topic1"
        ],
        "x": 200,
        "y": 280,
        "wires": [
            [
                "5c62ce6a4b7b320b"
            ]
        ]
    },
    {
        "id": "8dc0f82ec2046b50",
        "type": "function",
        "z": "9cb8178f24e9d90d",
        "name": "logout",
        "func": "msg.socket.event = 'logout';\nmsg.socket.emit = 'emit';\nmsg.payload = {\n    status: 'logout'\n};\nreturn msg;",
        "outputs": 1,
        "noerr": 0,
        "initialize": "",
        "finalize": "",
        "libs": [],
        "x": 590,
        "y": 100,
        "wires": [
            [
                "9def639a232b0e3e"
            ]
        ]
    },
    {
        "id": "97c790bd52dd090d",
        "type": "function",
        "z": "9cb8178f24e9d90d",
        "name": "login",
        "func": "msg.socket.event = 'login';\nmsg.socket.emit = 'emit';\nmsg.payload = {\n    status: 'login',\n    username: msg.iam.username\n};\nreturn msg;",
        "outputs": 1,
        "noerr": 0,
        "initialize": "",
        "finalize": "",
        "libs": [],
        "x": 590,
        "y": 60,
        "wires": [
            [
                "66f747435cc9fef6"
            ]
        ]
    },
    {
        "id": "180d3193895c6d4b",
        "type": "function",
        "z": "9cb8178f24e9d90d",
        "name": "Tmpl user",
        "func": "msg.payload = JSON.stringify({\n    body: {\n        msg: msg.payload.msg,\n        timestamp: msg.payload.timestamp,\n        author: msg.iam.username\n    },\n    socket: {\n        emit: 'emit',\n        event: 'socket_msg',\n        id: msg.socket.id\n    }\n});\nreturn msg;",
        "outputs": 1,
        "noerr": 0,
        "initialize": "",
        "finalize": "",
        "libs": [],
        "x": 880,
        "y": 260,
        "wires": [
            [
                "98e95e63a9059e5d"
            ]
        ]
    },
    {
        "id": "faab2292aaf1b88a",
        "type": "function",
        "z": "9cb8178f24e9d90d",
        "name": "Tmpl broadcast",
        "func": "msg.payload = JSON.stringify({\n    body: {\n        msg: msg.payload.msg,\n        timestamp: msg.payload.timestamp,\n        author: msg.iam.username\n    },\n    socket: {\n        emit: 'broadcast.emit',\n        event: 'socket_msg',\n        id: msg.socket.id\n    }\n});\nreturn msg;",
        "outputs": 1,
        "noerr": 0,
        "initialize": "",
        "finalize": "",
        "libs": [],
        "x": 900,
        "y": 300,
        "wires": [
            [
                "98e95e63a9059e5d"
            ]
        ]
    },
    {
        "id": "98e95e63a9059e5d",
        "type": "Kafka Producer",
        "z": "9cb8178f24e9d90d",
        "name": "",
        "broker": "5d52b083.cd194",
        "topic": "socket-msg",
        "topicSlash2dot": false,
        "requireAcks": 1,
        "ackTimeoutMs": 100,
        "partitionerType": 0,
        "key": "",
        "partition": 0,
        "attributes": 0,
        "connectionType": "Producer",
        "convertFromJson": false,
        "x": 1080,
        "y": 220,
        "wires": []
    },
    {
        "id": "bef2a209bcaec995",
        "type": "function",
        "z": "9cb8178f24e9d90d",
        "name": "Tmpl all",
        "func": "msg.payload = JSON.stringify({\n    body: {\n        msg: msg.payload.msg,\n        timestamp: msg.payload.timestamp,\n        author: msg.iam.username\n    },\n    socket: {\n        emit: 'all',\n        event: 'socket_msg',\n        id: msg.socket.id\n    }\n});\nreturn msg;",
        "outputs": 1,
        "noerr": 0,
        "initialize": "",
        "finalize": "",
        "libs": [],
        "x": 880,
        "y": 220,
        "wires": [
            [
                "98e95e63a9059e5d"
            ]
        ]
    },
    {
        "id": "19249569a1e5ece6",
        "type": "function",
        "z": "9cb8178f24e9d90d",
        "name": "Tmpl joinRoom",
        "func": "msg.payload = JSON.stringify({\n    body: { \n        msg: 'joinRoom', \n        author: 'SYSTEM'\n    },\n    socket: {\n        emit: 'emit',\n        event: 'socket_room_msg',\n        id: msg.socket.id\n    }\n});\nreturn msg;",
        "outputs": 1,
        "noerr": 0,
        "initialize": "",
        "finalize": "",
        "libs": [],
        "x": 1000,
        "y": 440,
        "wires": [
            [
                "cecfc9b18c226d04"
            ]
        ]
    },
    {
        "id": "d11bd5545a1aa114",
        "type": "function",
        "z": "9cb8178f24e9d90d",
        "name": "Tmpl sendRoom",
        "func": "msg.payload = JSON.stringify({\n    body: {\n        msg: msg.payload.msg,\n        room: msg.payload.room,\n        timestamp: msg.payload.timestamp,\n        author: msg.iam.username\n    },\n    socket: {\n        emit: 'room',\n        event: 'socket_room_msg',\n        id: msg.socket.id\n    }\n});\nreturn msg;",
        "outputs": 1,
        "noerr": 0,
        "initialize": "",
        "finalize": "",
        "libs": [],
        "x": 1000,
        "y": 480,
        "wires": [
            [
                "cecfc9b18c226d04"
            ]
        ]
    },
    {
        "id": "bed03790fd7c9e63",
        "type": "function",
        "z": "9cb8178f24e9d90d",
        "name": "Tmpl leaveRoom",
        "func": "msg.payload = JSON.stringify({\n    body: { \n        msg: 'leaveRoom',\n        room: msg.payload.room,\n        author: 'SYSTEM'\n    },\n    socket: {\n        emit: 'emit',\n        event: 'socket_room_msg',\n        id: msg.socket.id\n    }\n});\nreturn msg;",
        "outputs": 1,
        "noerr": 0,
        "initialize": "",
        "finalize": "",
        "libs": [],
        "x": 730,
        "y": 560,
        "wires": [
            [
                "cecfc9b18c226d04"
            ]
        ]
    },
    {
        "id": "c8016be9da21531a",
        "type": "socketio-join",
        "z": "9cb8178f24e9d90d",
        "overwriteroom": false,
        "room": "",
        "x": 1030,
        "y": 400,
        "wires": []
    },
    {
        "id": "cecfc9b18c226d04",
        "type": "Kafka Producer",
        "z": "9cb8178f24e9d90d",
        "name": "",
        "broker": "5d52b083.cd194",
        "topic": "socket-room-msg",
        "topicSlash2dot": false,
        "requireAcks": 1,
        "ackTimeoutMs": 100,
        "partitionerType": 0,
        "key": "",
        "partition": 0,
        "attributes": 0,
        "connectionType": "Producer",
        "convertFromJson": false,
        "x": 1220,
        "y": 520,
        "wires": []
    },
    {
        "id": "0bf437676103e42c",
        "type": "function",
        "z": "9cb8178f24e9d90d",
        "name": "Tmpl Insufficient permissions",
        "func": "msg.payload = JSON.stringify({\n    body: { \n        msg: 'Insufficient permissions',\n        author: 'SYSTEM'\n        \n    },\n    socket: {\n        emit: 'emit',\n        event: 'socket_room_msg',\n        id: msg.socket.id\n    }\n});\nreturn msg;",
        "outputs": 1,
        "noerr": 0,
        "initialize": "",
        "finalize": "",
        "libs": [],
        "x": 760,
        "y": 520,
        "wires": [
            [
                "cecfc9b18c226d04"
            ]
        ]
    },
    {
        "id": "a1a03df6fedd4c74",
        "type": "socketio-leave",
        "z": "9cb8178f24e9d90d",
        "overwriteroom": false,
        "room": "",
        "x": 760,
        "y": 600,
        "wires": []
    },
    {
        "id": "370e71d344e2bb1a",
        "type": "function",
        "z": "9cb8178f24e9d90d",
        "name": "Tmpl join service event",
        "func": "msg.payload = { \n    msg: 'socket event joined',\n    author: 'SYSTEM'\n};\nmsg.socket = {\n    emit: 'emit',\n    event: 'new_room_msg',\n    id: msg.socket.id\n};\nreturn msg;",
        "outputs": 1,
        "noerr": 0,
        "initialize": "",
        "finalize": "",
        "libs": [],
        "x": 940,
        "y": 700,
        "wires": [
            [
                "d87470b57e522630"
            ]
        ]
    },
    {
        "id": "6a7df13baa937d9a",
        "type": "socketio-join",
        "z": "9cb8178f24e9d90d",
        "overwriteroom": true,
        "room": "dashboard-events-room",
        "x": 1000,
        "y": 740,
        "wires": []
    },
    {
        "id": "f6b1c60e55586bbf",
        "type": "function",
        "z": "9cb8178f24e9d90d",
        "name": "Tmpl Insufficient permissions",
        "func": "msg.payload = { \n    msg: 'Insufficient permissions',\n    author: 'SYSTEM'\n};\nmsg.socket = {\n    emit: 'emit',\n    event: 'new_room_msg',\n    id: msg.socket.id\n};\nreturn msg;",
        "outputs": 1,
        "noerr": 0,
        "initialize": "",
        "finalize": "",
        "libs": [],
        "x": 960,
        "y": 780,
        "wires": [
            [
                "3f1cb6546b30b840"
            ]
        ]
    },
    {
        "id": "9d93af5f2f3d8123",
        "type": "socketio-leave",
        "z": "9cb8178f24e9d90d",
        "overwriteroom": true,
        "room": "dashboard-events-room",
        "x": 1000,
        "y": 820,
        "wires": []
    },
    {
        "id": "4c642030b540b873",
        "type": "function",
        "z": "9cb8178f24e9d90d",
        "name": "Tmpl leave dashboard event",
        "func": "msg.payload = { \n    msg: 'left service event',\n    author: 'SYSTEM'\n};\nmsg.socket = {\n    emit: 'emit',\n    event: 'new_room_msg',\n    id: msg.socket.id\n};\nreturn msg;",
        "outputs": 1,
        "noerr": 0,
        "initialize": "",
        "finalize": "",
        "libs": [],
        "x": 640,
        "y": 900,
        "wires": [
            [
                "d24302bda6e9f5d2"
            ]
        ]
    },
    {
        "id": "263ec03039711b5e",
        "type": "function",
        "z": "9cb8178f24e9d90d",
        "name": "Set room",
        "func": "msg.payload = {\n    room: 'dashboard-events-room'\n};\nreturn msg;",
        "outputs": 1,
        "noerr": 0,
        "initialize": "",
        "finalize": "",
        "libs": [],
        "x": 400,
        "y": 920,
        "wires": [
            [
                "4c642030b540b873",
                "7be8e3efb59e7865"
            ]
        ]
    },
    {
        "id": "52d45edbb8c2a42f",
        "type": "function",
        "z": "9cb8178f24e9d90d",
        "name": "Set room",
        "func": "msg.payload = {\n    room: 'dashboard-events-room'\n};\nreturn msg;",
        "outputs": 1,
        "noerr": 0,
        "initialize": "",
        "finalize": "",
        "libs": [],
        "x": 380,
        "y": 760,
        "wires": [
            [
                "02647c998e61e2b3"
            ]
        ]
    },
    {
        "id": "7be8e3efb59e7865",
        "type": "socketio-leave",
        "z": "9cb8178f24e9d90d",
        "overwriteroom": true,
        "room": "dashboard-events-room",
        "x": 680,
        "y": 940,
        "wires": []
    },
    {
        "id": "0331622d7cb8a606",
        "type": "iam-login",
        "z": "9cb8178f24e9d90d",
        "name": "",
        "endpoint": "/auth/realms/ambtec/protocol/openid-connect/token",
        "outputs": 2,
        "x": 390,
        "y": 80,
        "wires": [
            [
                "97c790bd52dd090d"
            ],
            [
                "8dc0f82ec2046b50"
            ]
        ]
    },
    {
        "id": "c7d0f2bd597fb0f3",
        "type": "iam-hasgroup",
        "z": "9cb8178f24e9d90d",
        "group": "/SocketRoomMsg",
        "outputs": 2,
        "x": 440,
        "y": 480,
        "wires": [
            [
                "f78621b2b9059e31"
            ],
            [
                "0bf437676103e42c"
            ]
        ]
    },
    {
        "id": "359e937f31037a59",
        "type": "iam-hasgroup",
        "z": "9cb8178f24e9d90d",
        "group": "/SocketRoomMsg",
        "outputs": 2,
        "x": 440,
        "y": 520,
        "wires": [
            [
                "1b671b8380442782"
            ],
            [
                "0bf437676103e42c",
                "a1a03df6fedd4c74"
            ]
        ]
    },
    {
        "id": "02647c998e61e2b3",
        "type": "iam-hasgroup",
        "z": "9cb8178f24e9d90d",
        "group": "/DashboardEvents",
        "outputs": 2,
        "x": 640,
        "y": 760,
        "wires": [
            [
                "370e71d344e2bb1a",
                "6a7df13baa937d9a",
                "9e813ff896506180"
            ],
            [
                "f6b1c60e55586bbf",
                "9d93af5f2f3d8123"
            ]
        ]
    },
    {
        "id": "a3cc4e1dcf5afed7",
        "type": "socketio-receive",
        "z": "9cb8178f24e9d90d",
        "d": true,
        "name": "",
        "socketid": "authenticate",
        "swaggerDoc": "53e2668642b8155b",
        "x": 150,
        "y": 80,
        "wires": [
            [
                "0331622d7cb8a606"
            ]
        ]
    },
    {
        "id": "ea2c486223c6b018",
        "type": "socketio-receive",
        "z": "9cb8178f24e9d90d",
        "d": true,
        "name": "",
        "socketid": "logout",
        "swaggerDoc": "85a3852c8228015f",
        "x": 130,
        "y": 140,
        "wires": [
            [
                "1684a534d94efbd9"
            ]
        ]
    },
    {
        "id": "ddcf332d74f9b2e9",
        "type": "socketio-receive",
        "z": "9cb8178f24e9d90d",
        "name": "",
        "socketid": "testAll",
        "swaggerDoc": "cadebe4fdb7ed348",
        "x": 130,
        "y": 220,
        "wires": [
            [
                "68be25e30163deea"
            ]
        ]
    },
    {
        "id": "c3ee6ca3d450503f",
        "type": "socketio-receive",
        "z": "9cb8178f24e9d90d",
        "name": "",
        "socketid": "testEmit",
        "swaggerDoc": "9372bcb2f2f63693",
        "x": 140,
        "y": 260,
        "wires": [
            [
                "8452e1308b6bb0bc"
            ]
        ]
    },
    {
        "id": "eccf86f80be33d0c",
        "type": "socketio-receive",
        "z": "9cb8178f24e9d90d",
        "name": "",
        "socketid": "testBroadcast",
        "swaggerDoc": "4e4fe7a4bc450899",
        "x": 150,
        "y": 300,
        "wires": [
            [
                "01541ac1c0b32e62"
            ]
        ]
    },
    {
        "id": "74e332a9f4787023",
        "type": "socketio-receive",
        "z": "9cb8178f24e9d90d",
        "name": "",
        "socketid": "joinRoom",
        "swaggerDoc": "682d8f1995fe4c54",
        "x": 140,
        "y": 480,
        "wires": [
            [
                "c7d0f2bd597fb0f3"
            ]
        ]
    },
    {
        "id": "15eb06ef5db16748",
        "type": "socketio-receive",
        "z": "9cb8178f24e9d90d",
        "name": "",
        "socketid": "sendRoom",
        "swaggerDoc": "5bea77d88d9acf10",
        "x": 140,
        "y": 520,
        "wires": [
            [
                "359e937f31037a59"
            ]
        ]
    },
    {
        "id": "ab202d5819fc149f",
        "type": "socketio-receive",
        "z": "9cb8178f24e9d90d",
        "name": "",
        "socketid": "leaveRoom",
        "swaggerDoc": "2b4eb8ae58178ec9",
        "x": 150,
        "y": 560,
        "wires": [
            [
                "7c5b13dd38a50773"
            ]
        ]
    },
    {
        "id": "0db9de149b71c0e1",
        "type": "socketio-receive",
        "z": "9cb8178f24e9d90d",
        "name": "",
        "socketid": "joinServiceEvent",
        "swaggerDoc": "eaf6498e4f5aa48c",
        "x": 160,
        "y": 760,
        "wires": [
            [
                "52d45edbb8c2a42f"
            ]
        ]
    },
    {
        "id": "dead38d80ecafc94",
        "type": "socketio-receive",
        "z": "9cb8178f24e9d90d",
        "name": "",
        "socketid": "leaveServiceEvent",
        "swaggerDoc": "4a7293f6a005d5c8",
        "x": 170,
        "y": 920,
        "wires": [
            [
                "263ec03039711b5e"
            ]
        ]
    },
    {
        "id": "b6c5f058c037de82",
        "type": "function",
        "z": "9cb8178f24e9d90d",
        "name": "dashboard room msg",
        "func": "msg.payload = {\n    msg: msg.payload,\n    timestamp: 'TIME',\n    author: 'SYSTEM'\n};\nmsg.socket = {\n    emit: 'room',\n    event: 'new_room_msg',\n    id: 'SYSTEM'\n};\nreturn msg;",
        "outputs": 1,
        "noerr": 0,
        "initialize": "",
        "finalize": "",
        "libs": [],
        "x": 440,
        "y": 1020,
        "wires": [
            [
                "d5026d555d9c0ea2"
            ]
        ]
    },
    {
        "id": "7e3665461fdffe4c",
        "type": "Kafka Consumer Group",
        "z": "9cb8178f24e9d90d",
        "name": "",
        "broker": "5d52b083.cd194",
        "groupId": "bGroup",
        "sessionTimeout": 15000,
        "protocol": [
            "roundrobin"
        ],
        "encoding": "utf8",
        "fromOffset": "latest",
        "commitOffsetsOnFirstJoin": "true",
        "outOfRangeOffset": "earliest",
        "topics": [
            "dashboard-events"
        ],
        "x": 180,
        "y": 1020,
        "wires": [
            [
                "b6c5f058c037de82"
            ]
        ]
    },
    {
        "id": "d5026d555d9c0ea2",
        "type": "socketio-reply",
        "z": "9cb8178f24e9d90d",
        "name": "",
        "sockettype": "room",
        "socketid": "new_room_msg",
        "room": "dashboard-events-room",
        "swaggerDoc": "e50929f420c7afe5",
        "x": 670,
        "y": 1020,
        "wires": []
    },
    {
        "id": "68be25e30163deea",
        "type": "iam-hasgroup",
        "z": "9cb8178f24e9d90d",
        "group": "/SocketMsg",
        "outputs": 2,
        "x": 410,
        "y": 220,
        "wires": [
            [
                "06b7d3795b2bf10e"
            ],
            [
                "c6e8fa1eb5ad9005"
            ]
        ]
    },
    {
        "id": "79a3d6a40692ad4c",
        "type": "function",
        "z": "9cb8178f24e9d90d",
        "name": "test",
        "func": "var payload = JSON.parse(msg.payload);\nmsg.socket = {\n    emit: payload.socket.emit,\n    event: payload.socket.event,\n    // event: 'test',\n    id: payload.socket.id\n};\nmsg.payload = { ...payload.body, ...{'Lorem':'Ipsum'} };\nreturn msg;",
        "outputs": 1,
        "noerr": 0,
        "initialize": "",
        "finalize": "",
        "libs": [],
        "x": 390,
        "y": 1080,
        "wires": [
            [
                "eb2ec22e83ad17d6"
            ]
        ]
    },
    {
        "id": "87af74eb13978195",
        "type": "Kafka Consumer Group",
        "z": "9cb8178f24e9d90d",
        "d": true,
        "name": "",
        "broker": "5d52b083.cd194",
        "groupId": "bGroup",
        "sessionTimeout": 15000,
        "protocol": [
            "roundrobin"
        ],
        "encoding": "utf8",
        "fromOffset": "latest",
        "commitOffsetsOnFirstJoin": "true",
        "outOfRangeOffset": "earliest",
        "topics": [
            "test-topic1"
        ],
        "x": 180,
        "y": 1080,
        "wires": [
            [
                "79a3d6a40692ad4c"
            ]
        ]
    },
    {
        "id": "d51e8010f7e835e1",
        "type": "Kafka Consumer Group",
        "z": "9cb8178f24e9d90d",
        "name": "",
        "broker": "5d52b083.cd194",
        "groupId": "cGroup",
        "sessionTimeout": 15000,
        "protocol": [
            "roundrobin"
        ],
        "encoding": "utf8",
        "fromOffset": "latest",
        "commitOffsetsOnFirstJoin": "true",
        "outOfRangeOffset": "earliest",
        "topics": [
            "iam-user-events"
        ],
        "x": 180,
        "y": 1260,
        "wires": [
            [
                "8ce13a8961cca6a4"
            ]
        ]
    },
    {
        "id": "8ce13a8961cca6a4",
        "type": "function",
        "z": "9cb8178f24e9d90d",
        "name": "parse body",
        "func": "msg.payload = JSON.parse(msg.payload);\nreturn msg;",
        "outputs": 1,
        "noerr": 0,
        "initialize": "",
        "finalize": "",
        "libs": [],
        "x": 410,
        "y": 1260,
        "wires": [
            [
                "7a26146a8c849670"
            ]
        ]
    },
    {
        "id": "7a26146a8c849670",
        "type": "switch",
        "z": "9cb8178f24e9d90d",
        "name": "",
        "property": "payload.type",
        "propertyType": "msg",
        "rules": [
            {
                "t": "eq",
                "v": "LOGIN",
                "vt": "str"
            },
            {
                "t": "eq",
                "v": "LOGOUT",
                "vt": "str"
            }
        ],
        "checkall": "true",
        "repair": false,
        "outputs": 2,
        "x": 590,
        "y": 1260,
        "wires": [
            [
                "ac1cf89f3a2f5590",
                "f938e3224eb1d9c6"
            ],
            [
                "4113b327e5573c6f",
                "ac1cf89f3a2f5590"
            ]
        ]
    },
    {
        "id": "ac1cf89f3a2f5590",
        "type": "debug",
        "z": "9cb8178f24e9d90d",
        "d": true,
        "name": "",
        "active": true,
        "tosidebar": true,
        "console": false,
        "tostatus": false,
        "complete": "true",
        "targetType": "full",
        "statusVal": "",
        "statusType": "auto",
        "x": 750,
        "y": 1320,
        "wires": []
    },
    {
        "id": "168fea0e3bfcc772",
        "type": "function",
        "z": "9cb8178f24e9d90d",
        "name": "socket msg",
        "func": "var payload = JSON.parse(msg.payload);\nmsg.socket = {\n    emit: payload.socket.emit,\n    event: 'new_msg',\n    id: payload.socket.id\n};\nmsg.payload = { ...payload.body };\nreturn msg;",
        "outputs": 1,
        "noerr": 0,
        "initialize": "",
        "finalize": "",
        "libs": [],
        "x": 410,
        "y": 1140,
        "wires": [
            [
                "3bafb7e18cbf5e7b"
            ]
        ]
    },
    {
        "id": "f66ce0d33fc0d113",
        "type": "Kafka Consumer Group",
        "z": "9cb8178f24e9d90d",
        "name": "",
        "broker": "5d52b083.cd194",
        "groupId": "bGroup",
        "sessionTimeout": 15000,
        "protocol": [
            "roundrobin"
        ],
        "encoding": "utf8",
        "fromOffset": "latest",
        "commitOffsetsOnFirstJoin": "true",
        "outOfRangeOffset": "earliest",
        "topics": [
            "socket-msg"
        ],
        "x": 180,
        "y": 1140,
        "wires": [
            [
                "168fea0e3bfcc772"
            ]
        ]
    },
    {
        "id": "d272cc244fe749e2",
        "type": "function",
        "z": "9cb8178f24e9d90d",
        "name": "socket room msg",
        "func": "var payload = JSON.parse(msg.payload);\nmsg.socket = {\n    emit: payload.socket.emit,\n    event: 'new_room_msg',\n    id: payload.socket.id\n};\nmsg.payload = { ...payload.body };\nreturn msg;",
        "outputs": 1,
        "noerr": 0,
        "initialize": "",
        "finalize": "",
        "libs": [],
        "x": 430,
        "y": 1200,
        "wires": [
            [
                "b5931e6795b4f533"
            ]
        ]
    },
    {
        "id": "e3dafcd767fa54b5",
        "type": "Kafka Consumer Group",
        "z": "9cb8178f24e9d90d",
        "name": "",
        "broker": "5d52b083.cd194",
        "groupId": "bGroup",
        "sessionTimeout": 15000,
        "protocol": [
            "roundrobin"
        ],
        "encoding": "utf8",
        "fromOffset": "latest",
        "commitOffsetsOnFirstJoin": "true",
        "outOfRangeOffset": "earliest",
        "topics": [
            "socket-room-msg"
        ],
        "x": 180,
        "y": 1200,
        "wires": [
            [
                "d272cc244fe749e2"
            ]
        ]
    },
    {
        "id": "8452e1308b6bb0bc",
        "type": "iam-hasgroup",
        "z": "9cb8178f24e9d90d",
        "group": "/SocketMsg",
        "outputs": 2,
        "x": 410,
        "y": 260,
        "wires": [
            [
                "96100f3f3cfbb324"
            ],
            [
                "c6e8fa1eb5ad9005"
            ]
        ]
    },
    {
        "id": "01541ac1c0b32e62",
        "type": "iam-hasgroup",
        "z": "9cb8178f24e9d90d",
        "group": "/SocketMsg",
        "outputs": 2,
        "x": 410,
        "y": 300,
        "wires": [
            [
                "8c5f76d9b2dc12ea"
            ],
            [
                "c6e8fa1eb5ad9005"
            ]
        ]
    },
    {
        "id": "c6e8fa1eb5ad9005",
        "type": "function",
        "z": "9cb8178f24e9d90d",
        "name": "Tmpl Insufficient permissions",
        "func": "msg.payload = { \n    msg: 'Insufficient permissions',\n    author: 'SYSTEM'\n};\nmsg.socket = {\n    emit: 'emit',\n    event: 'new_msg',\n    id: msg.socket.id\n};\nreturn msg;",
        "outputs": 1,
        "noerr": 0,
        "initialize": "",
        "finalize": "",
        "libs": [],
        "x": 700,
        "y": 340,
        "wires": [
            [
                "82063d5adf229513"
            ]
        ]
    },
    {
        "id": "1684a534d94efbd9",
        "type": "iam-logout",
        "z": "9cb8178f24e9d90d",
        "name": "",
        "endpoint": "/auth/realms/ambtec/protocol/openid-connect/logout",
        "outputs": 2,
        "x": 370,
        "y": 140,
        "wires": [
            [
                "8dc0f82ec2046b50"
            ],
            [
                "294b794238b7e17b",
                "8dc0f82ec2046b50"
            ]
        ]
    },
    {
        "id": "294b794238b7e17b",
        "type": "debug",
        "z": "9cb8178f24e9d90d",
        "name": "",
        "active": true,
        "tosidebar": true,
        "console": false,
        "tostatus": false,
        "complete": "true",
        "targetType": "full",
        "statusVal": "",
        "statusType": "auto",
        "x": 590,
        "y": 140,
        "wires": []
    },
    {
        "id": "4113b327e5573c6f",
        "type": "socketio-unregister",
        "z": "9cb8178f24e9d90d",
        "name": "",
        "x": 780,
        "y": 1280,
        "wires": [
            [
                "376093a25972564d"
            ]
        ]
    },
    {
        "id": "376093a25972564d",
        "type": "debug",
        "z": "9cb8178f24e9d90d",
        "name": "",
        "active": true,
        "tosidebar": true,
        "console": false,
        "tostatus": false,
        "complete": "true",
        "targetType": "full",
        "statusVal": "",
        "statusType": "auto",
        "x": 970,
        "y": 1280,
        "wires": []
    },
    {
        "id": "f938e3224eb1d9c6",
        "type": "socketio-register",
        "z": "9cb8178f24e9d90d",
        "name": "",
        "x": 780,
        "y": 1240,
        "wires": [
            [
                "8783dec1af34280b"
            ]
        ]
    },
    {
        "id": "8783dec1af34280b",
        "type": "debug",
        "z": "9cb8178f24e9d90d",
        "name": "",
        "active": true,
        "tosidebar": true,
        "console": false,
        "tostatus": false,
        "complete": "true",
        "targetType": "full",
        "statusVal": "",
        "statusType": "auto",
        "x": 970,
        "y": 1240,
        "wires": []
    },
    {
        "id": "82063d5adf229513",
        "type": "socketio-reply",
        "z": "9cb8178f24e9d90d",
        "name": "",
        "sockettype": "",
        "socketid": "new-msg",
        "room": "",
        "swaggerDoc": "e4c80b586f822e57",
        "x": 970,
        "y": 340,
        "wires": []
    },
    {
        "id": "66f747435cc9fef6",
        "type": "socketio-reply",
        "z": "9cb8178f24e9d90d",
        "name": "",
        "sockettype": "",
        "socketid": "login",
        "room": "",
        "swaggerDoc": "7bc91e43e8287b87",
        "x": 790,
        "y": 60,
        "wires": []
    },
    {
        "id": "9def639a232b0e3e",
        "type": "socketio-reply",
        "z": "9cb8178f24e9d90d",
        "name": "",
        "sockettype": "",
        "socketid": "logout",
        "room": "",
        "swaggerDoc": "54cca19b709252e4",
        "x": 790,
        "y": 100,
        "wires": []
    },
    {
        "id": "d87470b57e522630",
        "type": "socketio-reply",
        "z": "9cb8178f24e9d90d",
        "name": "",
        "sockettype": "",
        "socketid": "new_room_msg",
        "room": "",
        "swaggerDoc": "875d135cc27d3146",
        "x": 1190,
        "y": 700,
        "wires": []
    },
    {
        "id": "d24302bda6e9f5d2",
        "type": "socketio-reply",
        "z": "9cb8178f24e9d90d",
        "name": "",
        "sockettype": "",
        "socketid": "new_room_msg",
        "room": "",
        "swaggerDoc": "4fbd7a269d69f209",
        "x": 910,
        "y": 900,
        "wires": []
    },
    {
        "id": "b5931e6795b4f533",
        "type": "socketio-reply",
        "z": "9cb8178f24e9d90d",
        "name": "",
        "sockettype": "",
        "socketid": "new_room_msg",
        "room": "",
        "swaggerDoc": "c35e1d51ea1575b0",
        "x": 670,
        "y": 1200,
        "wires": []
    },
    {
        "id": "3bafb7e18cbf5e7b",
        "type": "socketio-reply",
        "z": "9cb8178f24e9d90d",
        "name": "",
        "sockettype": "",
        "socketid": "new-msg",
        "room": "",
        "swaggerDoc": "c726ba4ac99d0b9d",
        "x": 630,
        "y": 1140,
        "wires": []
    },
    {
        "id": "eb2ec22e83ad17d6",
        "type": "socketio-reply",
        "z": "9cb8178f24e9d90d",
        "name": "",
        "sockettype": "",
        "socketid": "socket-msg",
        "room": "",
        "swaggerDoc": "ac1e5f565c114990",
        "x": 590,
        "y": 1080,
        "wires": []
    },
    {
        "id": "3f1cb6546b30b840",
        "type": "socketio-reply",
        "z": "9cb8178f24e9d90d",
        "name": "",
        "sockettype": "",
        "socketid": "new_room_msg",
        "room": "",
        "swaggerDoc": "8fef84f917680ab0",
        "x": 1230,
        "y": 780,
        "wires": []
    },
    {
        "id": "06b7d3795b2bf10e",
        "type": "function",
        "z": "9cb8178f24e9d90d",
        "name": "Process payloads",
        "func": "for (var payload of msg.payload) {\n  var newMsg = msg;\n  newMsg.payload = payload;\n  node.send(newMsg);\n}",
        "outputs": 1,
        "noerr": 0,
        "initialize": "",
        "finalize": "",
        "libs": [],
        "x": 670,
        "y": 220,
        "wires": [
            [
                "bef2a209bcaec995"
            ]
        ]
    },
    {
        "id": "96100f3f3cfbb324",
        "type": "function",
        "z": "9cb8178f24e9d90d",
        "name": "Process payloads",
        "func": "for (var payload of msg.payload) {\n  var newMsg = msg;\n  newMsg.payload = payload;\n  node.send(newMsg);\n}",
        "outputs": 1,
        "noerr": 0,
        "initialize": "",
        "finalize": "",
        "libs": [],
        "x": 670,
        "y": 260,
        "wires": [
            [
                "180d3193895c6d4b"
            ]
        ]
    },
    {
        "id": "8c5f76d9b2dc12ea",
        "type": "function",
        "z": "9cb8178f24e9d90d",
        "name": "Process payloads",
        "func": "for (var payload of msg.payload) {\n  var newMsg = msg;\n  newMsg.payload = payload;\n  node.send(newMsg);\n}",
        "outputs": 1,
        "noerr": 0,
        "initialize": "",
        "finalize": "",
        "libs": [],
        "x": 670,
        "y": 300,
        "wires": [
            [
                "faab2292aaf1b88a"
            ]
        ]
    },
    {
        "id": "f78621b2b9059e31",
        "type": "function",
        "z": "9cb8178f24e9d90d",
        "name": "Process payloads",
        "func": "for (var payload of msg.payload) {\n  var newMsg = msg;\n  newMsg.payload = payload;\n  node.send(newMsg);\n}",
        "outputs": 1,
        "noerr": 0,
        "initialize": "",
        "finalize": "",
        "libs": [],
        "x": 730,
        "y": 440,
        "wires": [
            [
                "19249569a1e5ece6",
                "c8016be9da21531a"
            ]
        ]
    },
    {
        "id": "1b671b8380442782",
        "type": "function",
        "z": "9cb8178f24e9d90d",
        "name": "Process payloads",
        "func": "for (var payload of msg.payload) {\n  var newMsg = msg;\n  newMsg.payload = payload;\n  node.send(newMsg);\n}",
        "outputs": 1,
        "noerr": 0,
        "initialize": "",
        "finalize": "",
        "libs": [],
        "x": 730,
        "y": 480,
        "wires": [
            [
                "d11bd5545a1aa114"
            ]
        ]
    },
    {
        "id": "7c5b13dd38a50773",
        "type": "function",
        "z": "9cb8178f24e9d90d",
        "name": "Process payloads",
        "func": "for (var payload of msg.payload) {\n  var newMsg = msg;\n  newMsg.payload = payload;\n  node.send(newMsg);\n}",
        "outputs": 1,
        "noerr": 0,
        "initialize": "",
        "finalize": "",
        "libs": [],
        "x": 410,
        "y": 560,
        "wires": [
            [
                "bed03790fd7c9e63",
                "a1a03df6fedd4c74"
            ]
        ]
    },
    {
        "id": "e83c83c2a914ed12",
        "type": "debug",
        "z": "9cb8178f24e9d90d",
        "name": "",
        "active": true,
        "tosidebar": true,
        "console": false,
        "tostatus": false,
        "complete": "false",
        "statusVal": "",
        "statusType": "auto",
        "x": 670,
        "y": 980,
        "wires": []
    },
    {
        "id": "9e813ff896506180",
        "type": "debug",
        "z": "9cb8178f24e9d90d",
        "name": "",
        "active": true,
        "tosidebar": true,
        "console": false,
        "tostatus": false,
        "complete": "true",
        "targetType": "full",
        "statusVal": "",
        "statusType": "auto",
        "x": 910,
        "y": 640,
        "wires": []
    },
    {
        "id": "bf1946ef.b39438",
        "type": "http in",
        "z": "c72e9d69.12f3d",
        "name": "",
        "url": "/example/user",
        "method": "put",
        "upload": false,
        "swaggerDoc": "610feef9.ded6a",
        "x": 210,
        "y": 480,
        "wires": [
            [
                "949f3f21.4beed"
            ]
        ]
    },
    {
        "id": "81209e7e.c8757",
        "type": "http in",
        "z": "c72e9d69.12f3d",
        "name": "",
        "url": "/example/user",
        "method": "get",
        "upload": false,
        "swaggerDoc": "57e32bd9.4c4a54",
        "x": 210,
        "y": 400,
        "wires": [
            [
                "318128e6.ea9db8"
            ]
        ]
    },
    {
        "id": "3991ab48.73c8a4",
        "type": "http request",
        "z": "c72e9d69.12f3d",
        "name": "HTTP GraphQL",
        "method": "POST",
        "ret": "txt",
        "paytoqs": "query",
        "url": "${DATABASE_SERVICE_HOST}",
        "tls": "",
        "persist": false,
        "proxy": "",
        "authType": "",
        "x": 200,
        "y": 160,
        "wires": [
            [
                "ffaf31ba.b30e4"
            ]
        ]
    },
    {
        "id": "ffaf31ba.b30e4",
        "type": "http response",
        "z": "c72e9d69.12f3d",
        "name": "Return 200",
        "statusCode": "200",
        "headers": {},
        "x": 390,
        "y": 160,
        "wires": []
    },
    {
        "id": "63cfa19a.60ab7",
        "type": "http in",
        "z": "c72e9d69.12f3d",
        "name": "",
        "url": "/example/user",
        "method": "delete",
        "upload": false,
        "swaggerDoc": "2ce58e34.e5bb52",
        "x": 220,
        "y": 560,
        "wires": [
            [
                "fc8c0e86.43dc6"
            ]
        ]
    },
    {
        "id": "2ea33943.fe09f6",
        "type": "http in",
        "z": "c72e9d69.12f3d",
        "name": "",
        "url": "/example/user",
        "method": "patch",
        "upload": false,
        "swaggerDoc": "68c27628.211a08",
        "x": 220,
        "y": 520,
        "wires": [
            [
                "233c3462.baa2fc"
            ]
        ]
    },
    {
        "id": "24fe03d2.af937c",
        "type": "link in",
        "z": "c72e9d69.12f3d",
        "name": "make-graphql-request",
        "links": [
            "15ce38f.29d13c7",
            "699a3a1a.dc3ab4",
            "b8bf1d41.02bf8",
            "74ffb51b.bb77cc",
            "f224c7b5.923c48",
            "c54cd52e.1c0ec8",
            "8dbb0727.6e8028",
            "78f17102.12b8b",
            "d5438fec.5f483",
            "625bb03b.d688b",
            "2211171a.3b4998",
            "8d434ad.42e42b8",
            "27eb96e2.48871a",
            "9de2c5.d3884d38",
            "2a52d4ad.ef8b9c",
            "cf1dae28.47158",
            "3f90cde3.2a6c12",
            "da596ab.987e698",
            "9373353f.31a8e8",
            "252c0fba.e01b9",
            "af4f8f09.ef2de"
        ],
        "x": 75,
        "y": 160,
        "wires": [
            [
                "3991ab48.73c8a4"
            ]
        ]
    },
    {
        "id": "15ce38f.29d13c7",
        "type": "link out",
        "z": "c72e9d69.12f3d",
        "name": "",
        "links": [
            "24fe03d2.af937c"
        ],
        "x": 595,
        "y": 400,
        "wires": []
    },
    {
        "id": "6915929a.05aa8c",
        "type": "link in",
        "z": "c72e9d69.12f3d",
        "name": "response-400",
        "links": [
            "57ea54ac.a1389c",
            "71789467.33b69c",
            "adf4c0f9.f5297",
            "54933284.5d382c",
            "ef6b539e.201d",
            "7b23a3c1.f2edbc",
            "abc7a2d6.c4648",
            "e55483d5.6bea9",
            "d3c9c2d8.92362",
            "f48b4197.afca",
            "f05c193c.c9ec88",
            "83bdfd49.873d6",
            "5be31a1b.50b204",
            "27a5747a.2907fc",
            "352f1869.b89d48",
            "c1777664.c7a198",
            "3cb0d864.ad2d48"
        ],
        "x": 75,
        "y": 200,
        "wires": [
            [
                "60d30a11.d3cb64"
            ]
        ]
    },
    {
        "id": "60d30a11.d3cb64",
        "type": "http response",
        "z": "c72e9d69.12f3d",
        "name": "Return 400",
        "statusCode": "400",
        "headers": {
            "Success-Value-Type": "Number"
        },
        "x": 190,
        "y": 200,
        "wires": []
    },
    {
        "id": "fb07b6c4.3b8fa8",
        "type": "http in",
        "z": "c72e9d69.12f3d",
        "name": "",
        "url": "/example/role",
        "method": "get",
        "upload": false,
        "swaggerDoc": "790bec7a.df60d4",
        "x": 210,
        "y": 640,
        "wires": [
            [
                "43170b91.522dd4"
            ]
        ]
    },
    {
        "id": "df5bb593.ddf668",
        "type": "http in",
        "z": "c72e9d69.12f3d",
        "name": "",
        "url": "/example/role",
        "method": "put",
        "upload": false,
        "swaggerDoc": "7f285ede.44709",
        "x": 210,
        "y": 720,
        "wires": [
            [
                "96ad174b.138cc8"
            ]
        ]
    },
    {
        "id": "78ea807.ac5748",
        "type": "http in",
        "z": "c72e9d69.12f3d",
        "name": "",
        "url": "/example/role",
        "method": "patch",
        "upload": false,
        "swaggerDoc": "35e6a0b.f858d6",
        "x": 210,
        "y": 760,
        "wires": [
            [
                "a620116c.0c5ca"
            ]
        ]
    },
    {
        "id": "ae591ae.18db7e8",
        "type": "http in",
        "z": "c72e9d69.12f3d",
        "name": "",
        "url": "/example/role",
        "method": "delete",
        "upload": false,
        "swaggerDoc": "db012b4f.134218",
        "x": 220,
        "y": 800,
        "wires": [
            [
                "4f7d0489.09883c"
            ]
        ]
    },
    {
        "id": "d5438fec.5f483",
        "type": "link out",
        "z": "c72e9d69.12f3d",
        "name": "",
        "links": [
            "24fe03d2.af937c"
        ],
        "x": 655,
        "y": 440,
        "wires": []
    },
    {
        "id": "dbc69e07.ca719",
        "type": "http in",
        "z": "c72e9d69.12f3d",
        "name": "",
        "url": "/example/users/byEmail",
        "method": "get",
        "upload": false,
        "swaggerDoc": "6ac96565.c1c70c",
        "x": 240,
        "y": 440,
        "wires": [
            [
                "d30ae6de.6ccec8"
            ]
        ]
    },
    {
        "id": "d3ce39d4.1a6c98",
        "type": "http in",
        "z": "c72e9d69.12f3d",
        "name": "",
        "url": "/example/roles/byName",
        "method": "get",
        "upload": false,
        "swaggerDoc": "ef6ea6bd.5df228",
        "x": 240,
        "y": 680,
        "wires": [
            [
                "a2e88cf.c27877"
            ]
        ]
    },
    {
        "id": "2211171a.3b4998",
        "type": "link out",
        "z": "c72e9d69.12f3d",
        "name": "",
        "links": [
            "24fe03d2.af937c"
        ],
        "x": 715,
        "y": 880,
        "wires": []
    },
    {
        "id": "9ce71315.64ec3",
        "type": "http in",
        "z": "c72e9d69.12f3d",
        "name": "",
        "url": "/example/rolesAuth",
        "method": "get",
        "upload": false,
        "swaggerDoc": "83488294.fdf5f",
        "x": 230,
        "y": 1000,
        "wires": [
            [
                "483ed624.3a5738"
            ]
        ]
    },
    {
        "id": "8d434ad.42e42b8",
        "type": "link out",
        "z": "c72e9d69.12f3d",
        "name": "",
        "links": [
            "24fe03d2.af937c"
        ],
        "x": 595,
        "y": 320,
        "wires": []
    },
    {
        "id": "c2d0fc4b.7b22",
        "type": "http in",
        "z": "c72e9d69.12f3d",
        "name": "",
        "url": "/example/roles",
        "method": "get",
        "upload": false,
        "swaggerDoc": "b16b851e.efd968",
        "x": 210,
        "y": 320,
        "wires": [
            [
                "e5606ffd.85e19"
            ]
        ]
    },
    {
        "id": "483ed624.3a5738",
        "type": "iam-login",
        "z": "c72e9d69.12f3d",
        "name": "",
        "endpoint": "/auth/realms/ambtec/protocol/openid-connect/token",
        "outputs": 2,
        "x": 490,
        "y": 1000,
        "wires": [
            [
                "bb0d557c.d020e8"
            ],
            [
                "c1777664.c7a198"
            ]
        ]
    },
    {
        "id": "bb0d557c.d020e8",
        "type": "iam-hasgroup",
        "z": "c72e9d69.12f3d",
        "group": "/TestGroup",
        "outputs": 2,
        "x": 530,
        "y": 940,
        "wires": [
            [
                "d2f136a7.0f6a68"
            ],
            [
                "3cb0d864.ad2d48"
            ]
        ]
    },
    {
        "id": "c1777664.c7a198",
        "type": "link out",
        "z": "c72e9d69.12f3d",
        "name": "",
        "links": [
            "6915929a.05aa8c"
        ],
        "x": 655,
        "y": 1000,
        "wires": []
    },
    {
        "id": "3cb0d864.ad2d48",
        "type": "link out",
        "z": "c72e9d69.12f3d",
        "name": "",
        "links": [
            "6915929a.05aa8c"
        ],
        "x": 715,
        "y": 940,
        "wires": []
    },
    {
        "id": "318128e6.ea9db8",
        "type": "graphql-config",
        "z": "c72e9d69.12f3d",
        "name": "",
        "configuration": "query {\n  user(id: \"34428832-1646-48d7-8454-49fe693538a6\") {\n    id,\n    username,\n    email,\n    roles {\n      id,\n      name,\n      description\n    }\n  }\n}",
        "x": 440,
        "y": 400,
        "wires": [
            [
                "15ce38f.29d13c7"
            ]
        ]
    },
    {
        "id": "949f3f21.4beed",
        "type": "graphql-config",
        "z": "c72e9d69.12f3d",
        "name": "",
        "configuration": "mutation {\n  createUser(input: {\n    username: \"username\",\n    email: \"example@mai.ch\", \n    roles:[{id:\"anyId\"}]\n  }) {\n    id\n  }\n}",
        "x": 440,
        "y": 480,
        "wires": [
            [
                "27eb96e2.48871a"
            ]
        ]
    },
    {
        "id": "27eb96e2.48871a",
        "type": "link out",
        "z": "c72e9d69.12f3d",
        "name": "",
        "links": [
            "24fe03d2.af937c"
        ],
        "x": 595,
        "y": 480,
        "wires": []
    },
    {
        "id": "366e0cef.0b6354",
        "type": "http in",
        "z": "c72e9d69.12f3d",
        "name": "",
        "url": "/example/users",
        "method": "get",
        "upload": false,
        "swaggerDoc": "5499cc45.d80114",
        "x": 210,
        "y": 280,
        "wires": [
            [
                "efe6671.0c27d98"
            ]
        ]
    },
    {
        "id": "9de2c5.d3884d38",
        "type": "link out",
        "z": "c72e9d69.12f3d",
        "name": "",
        "links": [
            "24fe03d2.af937c"
        ],
        "x": 595,
        "y": 280,
        "wires": []
    },
    {
        "id": "efe6671.0c27d98",
        "type": "graphql-config",
        "z": "c72e9d69.12f3d",
        "name": "",
        "configuration": "query {\n  users {\n    id,\n    username,\n    email,\n    roles {\n      id,\n      name,\n      description\n    }\n  }\n}",
        "x": 440,
        "y": 280,
        "wires": [
            [
                "9de2c5.d3884d38"
            ]
        ]
    },
    {
        "id": "233c3462.baa2fc",
        "type": "graphql-config",
        "z": "c72e9d69.12f3d",
        "name": "",
        "configuration": "mutation {\n  updateUser(id: \"userId\", input: {\n    username: \"username\",\n    email: \"example@mai.ch\", \n    roles:[{id:\"anyId\"}]\n  }) {\n    id\n  }\n}",
        "x": 460,
        "y": 520,
        "wires": [
            [
                "2a52d4ad.ef8b9c"
            ]
        ]
    },
    {
        "id": "2a52d4ad.ef8b9c",
        "type": "link out",
        "z": "c72e9d69.12f3d",
        "name": "",
        "links": [
            "24fe03d2.af937c"
        ],
        "x": 615,
        "y": 520,
        "wires": []
    },
    {
        "id": "fc8c0e86.43dc6",
        "type": "graphql-config",
        "z": "c72e9d69.12f3d",
        "name": "",
        "configuration": "mutation {\n  removeUser(id: \"userId\") {\n    id\n  }\n}",
        "x": 460,
        "y": 560,
        "wires": [
            [
                "cf1dae28.47158"
            ]
        ]
    },
    {
        "id": "cf1dae28.47158",
        "type": "link out",
        "z": "c72e9d69.12f3d",
        "name": "",
        "links": [
            "24fe03d2.af937c"
        ],
        "x": 615,
        "y": 560,
        "wires": []
    },
    {
        "id": "43170b91.522dd4",
        "type": "graphql-config",
        "z": "c72e9d69.12f3d",
        "name": "",
        "configuration": "query {\n  role(id: \"34428832-1646-48d7-8454-49fe693538a6\") {\n    id,\n    name,\n    description,\n    users {\n      id,\n      username,\n      email\n    }\n  }\n}",
        "x": 440,
        "y": 640,
        "wires": [
            [
                "3f90cde3.2a6c12"
            ]
        ]
    },
    {
        "id": "3f90cde3.2a6c12",
        "type": "link out",
        "z": "c72e9d69.12f3d",
        "name": "",
        "links": [
            "24fe03d2.af937c"
        ],
        "x": 595,
        "y": 640,
        "wires": []
    },
    {
        "id": "a2e88cf.c27877",
        "type": "graphql-config",
        "z": "c72e9d69.12f3d",
        "name": "",
        "configuration": "query {\n  role(name: \"A role name\") {\n    id,\n    name,\n    description,\n    users {\n      id,\n      username,\n      email\n    }\n  }\n}",
        "x": 500,
        "y": 680,
        "wires": [
            [
                "da596ab.987e698"
            ]
        ]
    },
    {
        "id": "da596ab.987e698",
        "type": "link out",
        "z": "c72e9d69.12f3d",
        "name": "",
        "links": [
            "24fe03d2.af937c"
        ],
        "x": 655,
        "y": 680,
        "wires": []
    },
    {
        "id": "96ad174b.138cc8",
        "type": "graphql-config",
        "z": "c72e9d69.12f3d",
        "name": "",
        "configuration": "mutation {\n  createRole(input: {\n    name: \"name\",\n    description: \"description\"\n  }) {\n    id\n  }\n}",
        "x": 440,
        "y": 720,
        "wires": [
            [
                "9373353f.31a8e8"
            ]
        ]
    },
    {
        "id": "9373353f.31a8e8",
        "type": "link out",
        "z": "c72e9d69.12f3d",
        "name": "",
        "links": [
            "24fe03d2.af937c"
        ],
        "x": 595,
        "y": 720,
        "wires": []
    },
    {
        "id": "a620116c.0c5ca",
        "type": "graphql-config",
        "z": "c72e9d69.12f3d",
        "name": "",
        "configuration": "mutation {\n  updateRole(id: \"roleId\", input: {\n    name: \"name\",\n    description: \"description\"\n  }) {\n    id\n  }\n}",
        "x": 460,
        "y": 760,
        "wires": [
            [
                "252c0fba.e01b9"
            ]
        ]
    },
    {
        "id": "252c0fba.e01b9",
        "type": "link out",
        "z": "c72e9d69.12f3d",
        "name": "",
        "links": [
            "24fe03d2.af937c"
        ],
        "x": 615,
        "y": 760,
        "wires": []
    },
    {
        "id": "4f7d0489.09883c",
        "type": "graphql-config",
        "z": "c72e9d69.12f3d",
        "name": "",
        "configuration": "mutation {\n  removeRole(id: \"roleId\") {\n    id\n  }\n}",
        "x": 460,
        "y": 800,
        "wires": [
            [
                "af4f8f09.ef2de"
            ]
        ]
    },
    {
        "id": "af4f8f09.ef2de",
        "type": "link out",
        "z": "c72e9d69.12f3d",
        "name": "",
        "links": [
            "24fe03d2.af937c"
        ],
        "x": 615,
        "y": 800,
        "wires": []
    },
    {
        "id": "e5606ffd.85e19",
        "type": "graphql-config",
        "z": "c72e9d69.12f3d",
        "name": "",
        "configuration": "query {\n  roles {\n    id,\n    name,\n    description,\n    users {\n      id,\n      username,\n      email\n    }\n  }\n}",
        "x": 440,
        "y": 320,
        "wires": [
            [
                "8d434ad.42e42b8"
            ]
        ]
    },
    {
        "id": "d2f136a7.0f6a68",
        "type": "graphql-config",
        "z": "c72e9d69.12f3d",
        "name": "",
        "configuration": "query {\n  roles {\n    id,\n    name,\n    description,\n    users {\n      id,\n      username,\n      email\n    }\n  }\n}",
        "x": 540,
        "y": 880,
        "wires": [
            [
                "2211171a.3b4998"
            ]
        ]
    },
    {
        "id": "d30ae6de.6ccec8",
        "type": "graphql-config",
        "z": "c72e9d69.12f3d",
        "name": "",
        "configuration": "query {\n  user(email: \"any@email.com\") {\n    id,\n    username,\n    email,\n    roles {\n      id,\n      name,\n      description\n    }\n  }\n}",
        "x": 500,
        "y": 440,
        "wires": [
            [
                "d5438fec.5f483"
            ]
        ]
    }
]